('E:\\project_NA\\ScriptCreator\\Source Code\\build\\main\\PKG-00.pkg',
 {'BINARY': 1,
  'DATA': 1,
  'EXECUTABLE': 1,
  'EXTENSION': 1,
  'PYMODULE': 1,
  'PYSOURCE': 1,
  'PYZ': 0},
 [('PYZ-00.pyz',
   'E:\\project_NA\\ScriptCreator\\Source Code\\build\\main\\PYZ-00.pyz',
   'PYZ'),
  ('struct', 'c:\\python27\\lib\\struct.pyc', 'PYMODULE'),
  ('pyimod01_os_path',
   'c:\\python27\\lib\\site-packages\\PyInstaller\\loader\\pyimod01_os_path.pyc',
   'PYMODULE'),
  ('pyimod02_archive',
   'c:\\python27\\lib\\site-packages\\PyInstaller\\loader\\pyimod02_archive.pyc',
   'PYMODULE'),
  ('pyimod03_importers',
   'c:\\python27\\lib\\site-packages\\PyInstaller\\loader\\pyimod03_importers.pyc',
   'PYMODULE'),
  ('pyiboot01_bootstrap',
   'c:\\python27\\lib\\site-packages\\PyInstaller\\loader\\pyiboot01_bootstrap.py',
   'PYSOURCE'),
  ('pyi_rth_qt4plugins',
   'c:\\python27\\lib\\site-packages\\PyInstaller\\loader\\rthooks\\pyi_rth_qt4plugins.py',
   'PYSOURCE'),
  ('main', 'E:\\project_NA\\ScriptCreator\\Source Code\\main.py', 'PYSOURCE'),
  (u'Microsoft.VC90.CRT.manifest',
   u'C:\\WINDOWS\\WinSxS\\Manifests\\x86_microsoft.vc90.crt_1fc8b3b9a1e18e3b_9.0.30729.9518_none_508db366bcbd18c4.manifest',
   'BINARY'),
  (u'msvcr90.dll',
   u'C:\\WINDOWS\\WinSxS\\x86_microsoft.vc90.crt_1fc8b3b9a1e18e3b_9.0.30729.9518_none_508db366bcbd18c4\\msvcr90.dll',
   'BINARY'),
  (u'msvcp90.dll',
   u'C:\\WINDOWS\\WinSxS\\x86_microsoft.vc90.crt_1fc8b3b9a1e18e3b_9.0.30729.9518_none_508db366bcbd18c4\\msvcp90.dll',
   'BINARY'),
  (u'msvcm90.dll',
   u'C:\\WINDOWS\\WinSxS\\x86_microsoft.vc90.crt_1fc8b3b9a1e18e3b_9.0.30729.9518_none_508db366bcbd18c4\\msvcm90.dll',
   'BINARY'),
  ('python27.dll', 'C:\\WINDOWS\\system32\\python27.dll', 'BINARY'),
  ('qt4_plugins\\imageformats\\qtga4.dll',
   'C:\\python27\\Lib\\site-packages\\PyQt4\\plugins\\imageformats\\qtga4.dll',
   'BINARY'),
  ('qt4_plugins\\codecs\\qtwcodecs4.dll',
   'C:\\python27\\Lib\\site-packages\\PyQt4\\plugins\\codecs\\qtwcodecs4.dll',
   'BINARY'),
  ('qt4_plugins\\codecs\\qcncodecs4.dll',
   'C:\\python27\\Lib\\site-packages\\PyQt4\\plugins\\codecs\\qcncodecs4.dll',
   'BINARY'),
  ('qt4_plugins\\imageformats\\qico4.dll',
   'C:\\python27\\Lib\\site-packages\\PyQt4\\plugins\\imageformats\\qico4.dll',
   'BINARY'),
  ('qt4_plugins\\imageformats\\qsvg4.dll',
   'C:\\python27\\Lib\\site-packages\\PyQt4\\plugins\\imageformats\\qsvg4.dll',
   'BINARY'),
  ('qt4_plugins\\accessible\\qtaccessiblewidgets4.dll',
   'C:\\python27\\Lib\\site-packages\\PyQt4\\plugins\\accessible\\qtaccessiblewidgets4.dll',
   'BINARY'),
  ('qt4_plugins\\iconengines\\qsvgicon4.dll',
   'C:\\python27\\Lib\\site-packages\\PyQt4\\plugins\\iconengines\\qsvgicon4.dll',
   'BINARY'),
  ('qt4_plugins\\imageformats\\qgif4.dll',
   'C:\\python27\\Lib\\site-packages\\PyQt4\\plugins\\imageformats\\qgif4.dll',
   'BINARY'),
  ('qt4_plugins\\codecs\\qjpcodecs4.dll',
   'C:\\python27\\Lib\\site-packages\\PyQt4\\plugins\\codecs\\qjpcodecs4.dll',
   'BINARY'),
  ('qt4_plugins\\imageformats\\qmng4.dll',
   'C:\\python27\\Lib\\site-packages\\PyQt4\\plugins\\imageformats\\qmng4.dll',
   'BINARY'),
  ('qt4_plugins\\codecs\\qkrcodecs4.dll',
   'C:\\python27\\Lib\\site-packages\\PyQt4\\plugins\\codecs\\qkrcodecs4.dll',
   'BINARY'),
  ('qt4_plugins\\imageformats\\qjpeg4.dll',
   'C:\\python27\\Lib\\site-packages\\PyQt4\\plugins\\imageformats\\qjpeg4.dll',
   'BINARY'),
  ('qt4_plugins\\graphicssystems\\qglgraphicssystem4.dll',
   'C:\\python27\\Lib\\site-packages\\PyQt4\\plugins\\graphicssystems\\qglgraphicssystem4.dll',
   'BINARY'),
  ('qt4_plugins\\imageformats\\qtiff4.dll',
   'C:\\python27\\Lib\\site-packages\\PyQt4\\plugins\\imageformats\\qtiff4.dll',
   'BINARY'),
  ('PySide.QtCore',
   'c:\\python27\\lib\\site-packages\\PySide\\QtCore.pyd',
   'EXTENSION'),
  ('PySide.QtNetwork',
   'c:\\python27\\lib\\site-packages\\PySide\\QtNetwork.pyd',
   'EXTENSION'),
  ('_ctypes', 'c:\\python27\\DLLs\\_ctypes.pyd', 'EXTENSION'),
  ('unicodedata', 'c:\\python27\\DLLs\\unicodedata.pyd', 'EXTENSION'),
  ('bz2', 'c:\\python27\\DLLs\\bz2.pyd', 'EXTENSION'),
  ('_hashlib', 'c:\\python27\\DLLs\\_hashlib.pyd', 'EXTENSION'),
  ('select', 'c:\\python27\\DLLs\\select.pyd', 'EXTENSION'),
  ('PyQt4.QtGui',
   'c:\\python27\\lib\\site-packages\\PyQt4\\QtGui.pyd',
   'EXTENSION'),
  ('sip', 'c:\\python27\\lib\\site-packages\\sip.pyd', 'EXTENSION'),
  ('PyQt4.QtCore',
   'c:\\python27\\lib\\site-packages\\PyQt4\\QtCore.pyd',
   'EXTENSION'),
  ('QtGui4.dll',
   'c:\\python27\\lib\\site-packages\\PyQt4\\qtgui4.dll',
   'BINARY'),
  ('QtCore4.dll',
   'c:\\python27\\lib\\site-packages\\PyQt4\\qtcore4.dll',
   'BINARY'),
  ('QtXml4.dll',
   'c:\\python27\\lib\\site-packages\\PyQt4\\qtxml4.dll',
   'BINARY'),
  ('QtSvg4.dll',
   'c:\\python27\\lib\\site-packages\\PyQt4\\qtsvg4.dll',
   'BINARY'),
  ('QtOpenGL4.dll',
   'c:\\python27\\lib\\site-packages\\PyQt4\\qtopengl4.dll',
   'BINARY'),
  ('pyside-python2.7.dll',
   'c:\\python27\\lib\\site-packages\\PySide\\pyside-python2.7.dll',
   'BINARY'),
  ('shiboken-python2.7.dll',
   'c:\\python27\\lib\\site-packages\\PySide\\shiboken-python2.7.dll',
   'BINARY'),
  ('QtNetwork4.dll',
   'c:\\python27\\lib\\site-packages\\PySide\\QtNetwork4.dll',
   'BINARY'),
  ('main.exe.manifest',
   'E:\\project_NA\\ScriptCreator\\Source Code\\build\\main\\main.exe.manifest',
   'BINARY'),
  ('pyi-windows-manifest-filename main.exe.manifest', '', 'OPTION')],
 False,
 False,
 False)
